ALL0003/F0003CH1.CSV

Record Length,2.500000e+03,,  -0.000028000000,  -4.00000,
Sample Interval,2.000000e-07,,  -0.000027800000,  -2.00000,
Trigger Point,1.400000000000e+02,,  -0.000027600000,  -2.00000,
,,,  -0.000027400000,  -4.00000,
,,,  -0.000027200000,  -4.00000,
,,,  -0.000027000000,  -6.00000,
Source,CH1,,  -0.000026800000,  -4.00000,
Vertical Units,V,,  -0.000026600000,  -2.00000,
Vertical Scale,5.000000e+01,,  -0.000026400000,  -4.00000,
Vertical Offset,2.000000e+00,,  -0.000026200000,  -2.00000,
Horizontal Units,s,,  -0.000026000000,  -4.00000,
Horizontal Scale,5.000000e-05,,  -0.000025800000,  -2.00000,
Pt Fmt,Y,,  -0.000025600000,  -2.00000,
Yzero,0.000000e+00,,  -0.000025400000,  -4.00000,
Probe Atten,1.000000e+01,,  -0.000025200000,  -4.00000,
Model Number,TDS1001B,,  -0.000025000000,  -2.00000,
Serial Number,C059812,,  -0.000024800000,  -4.00000,
Firmware Version,FV:v22.01,,  -0.000024600000,  -4.00000,
,,,-00.000024400000,  -2.00000,
,,,-00.000024200000,  -2.00000,
,,,-00.000024000000,  -4.00000,
,,,-00.000023800000,  -4.00000,
,,,-00.000023600000,  -4.00000,
,,,-00.000023400000,  -2.00000,
,,,-00.000023200000,  -2.00000,
,,,-00.000023000000,  -6.00000,
,,,-00.000022800000,  -4.00000,
,,,-00.000022600000,  -2.00000,
,,,-00.000022400000,  -2.00000,
,,,-00.000022200000,  -4.00000,
,,,-00.000022000000,  -4.00000,
,,,-00.000021800000,  -2.00000,
,,,-00.000021600000,  -4.00000,
,,,-00.000021400000,  -4.00000,
,,,-00.000021200000,  -2.00000,
,,,-00.000021000000,  -2.00000,
,,,-00.000020800000,  -4.00000,
,,,-00.000020600000,  -4.00000,
,,,-00.000020400000,  -6.00000,
,,,-00.000020200000,  -2.00000,
,,,-00.000020000000,  -4.00000,
,,,-00.000019800000,  -2.00000,
,,,-00.000019600000,  -4.00000,
,,,-00.000019400000,  -2.00000,
,,,-00.000019200000,  -2.00000,
,,,-00.000019000000,  -4.00000,
,,,-00.000018800000,  -2.00000,
,,,-00.000018600000,  -4.00000,
,,,-00.000018400000,  -2.00000,
,,,-00.000018200000,  -2.00000,
,,,-00.000018000000,  -2.00000,
,,,-00.000017800000,  -4.00000,
,,,-00.000017600000,   0.00000,
,,,-00.000017400000,  -2.00000,
,,,-00.000017200000,  -2.00000,
,,,-00.000017000000,  -4.00000,
,,,-00.000016800000,  -2.00000,
,,,-00.000016600000,  -4.00000,
,,,-00.000016400000,  -6.00000,
,,,-00.000016200000,  -2.00000,
,,,-00.000016000000,  -4.00000,
,,,-00.000015800000,  -4.00000,
,,,-00.000015600000,  -6.00000,
,,,-00.000015400000,  -4.00000,
,,,-00.000015200000,  -2.00000,
,,,-00.000015000000,  -2.00000,
,,,-00.000014800000,  -2.00000,
,,,-00.000014600000,  -2.00000,
,,,-00.000014400000,  -4.00000,
,,,-00.000014200000,  -4.00000,
,,,-00.000014000000,  -4.00000,
,,,-00.000013800000,  -4.00000,
,,,-00.000013600000,  -4.00000,
,,,-00.000013400000,  -4.00000,
,,,-00.000013200000,  -2.00000,
,,,-00.000013000000,  -4.00000,
,,,-00.000012800000,  -4.00000,
,,,-00.000012600000,  -2.00000,
,,,-00.000012400000,  -4.00000,
,,,-00.000012200000,  -4.00000,
,,,-00.000012000000,  -2.00000,
,,,-00.000011800000,   0.00000,
,,,-00.000011600000,  -2.00000,
,,,-00.000011400000,  -4.00000,
,,,-00.000011200000,  -2.00000,
,,,-00.000011000000,  -4.00000,
,,,-00.000010800000,  -4.00000,
,,,-00.000010600000,  -4.00000,
,,,-00.000010400000,  -2.00000,
,,,-00.000010200000,  -4.00000,
,,,-00.000010000000,  -2.00000,
,,,-00.000009800000,  -4.00000,
,,,-00.000009600000,  -4.00000,
,,,-00.000009400000,  -2.00000,
,,,-00.000009200000,  -2.00000,
,,,-00.000009000000,  -2.00000,
,,,-00.000008800000,  -2.00000,
,,,-00.000008600000,  -2.00000,
,,,-00.000008400000,  -2.00000,
,,,-00.000008200000,  -2.00000,
,,,-00.000008000000,  -2.00000,
,,,-00.000007800000,   0.00000,
,,,-00.000007600000,  -4.00000,
,,,-00.000007400000,  -4.00000,
,,,-00.000007200000,  -6.00000,
,,,-00.000007000000,  -4.00000,
,,,-00.000006800000,  -2.00000,
,,,-00.000006600000,  -4.00000,
,,,-00.000006400000,  -2.00000,
,,,-00.000006200000,  -2.00000,
,,,-00.000006000000,  -2.00000,
,,,-00.000005800000,  -2.00000,
,,,-00.000005600000,  -2.00000,
,,,-00.000005400000,  -2.00000,
,,,-00.000005200000,  -4.00000,
,,,-00.000005000000,   0.00000,
,,,-00.000004800000,  -2.00000,
,,,-00.000004600000,  -2.00000,
,,,-00.000004400000,   0.00000,
,,,-00.000004200000,  -4.00000,
,,,-00.000004000000,  -2.00000,
,,,-00.000003800000,  -2.00000,
,,,-00.000003600000,  -2.00000,
,,,-00.000003400000,  -6.00000,
,,,-00.000003200000,  -4.00000,
,,,-00.000003000000,  -4.00000,
,,,-00.000002800000,  -2.00000,
,,,-00.000002600000,  -2.00000,
,,,-00.000002400000,  -2.00000,
,,,-00.000002200000,  -2.00000,
,,,-00.000002000000,  -2.00000,
,,,-00.000001800000,  -2.00000,
,,,-00.000001600000,   0.00000,
,,,-00.000001400000,   0.00000,
,,,-00.000001200000,  -2.00000,
,,,-00.000001000000,   0.00000,
,,,-00.000000800000,   0.00000,
,,,-00.000000600000,   0.00000,
,,,-00.000000400000,   0.00000,
,,,-00.000000200000,   4.00000,
00.000000000000 2.00000
,,,00.000000200000,   2.00000,
,,,00.000000400000,   6.00000,
,,,00.000000600000,   8.00000,
,,,00.000000800000,   6.00000,
,,,00.000001000000,   8.00000,
,,,00.000001200000,  12.00000,
,,,00.000001400000,  12.00000,
,,,00.000001600000,  12.00000,
,,,00.000001800000,  14.00000,
,,,00.000002000000,  18.00000,
,,,00.000002200000,  20.00000,
,,,00.000002400000,  22.00000,
,,,00.000002600000,  24.00000,
,,,00.000002800000,  26.00000,
,,,00.000003000000,  28.00000,
,,,00.000003200000,  30.00000,
,,,00.000003400000,  34.00000,
,,,00.000003600000,  36.00000,
,,,00.000003800000,  40.00000,
,,,00.000004000000,  42.00000,
,,,00.000004200000,  46.00000,
,,,00.000004400000,  48.00000,
,,,00.000004600000,  50.00000,
,,,00.000004800000,  52.00000,
,,,00.000005000000,  58.00000,
,,,00.000005200000,  58.00000,
,,,00.000005400000,  62.00000,
,,,00.000005600000,  66.00000,
,,,00.000005800000,  68.00000,
,,,00.000006000000,  70.00000,
,,,00.000006200000,  74.00000,
,,,00.000006400000,  78.00000,
,,,00.000006600000,  82.00000,
,,,00.000006800000,  86.00000,
,,,00.000007000000,  88.00000,
,,,00.000007200000,  92.00000,
,,,00.000007400000,  92.00000,
,,,00.000007600000,  96.00000,
,,,00.000007800000, 100.00000,
,,,00.000008000000, 104.00000,
,,,00.000008200000, 108.00000,
,,,00.000008400000, 112.00000,
,,,00.000008600000, 116.00000,
,,,00.000008800000, 122.00000,
,,,00.000009000000, 122.00000,
,,,00.000009200000, 124.00000,
,,,00.000009400000, 126.00000,
,,,00.000009600000, 132.00000,
,,,00.000009800000, 132.00000,
,,,00.000010000000, 140.00000,
,,,00.000010200000, 140.00000,
,,,00.000010400000, 142.00000,
,,,00.000010600000, 146.00000,
,,,00.000010800000, 148.00000,
,,,00.000011000000, 152.00000,
,,,00.000011200000, 154.00000,
,,,00.000011400000, 156.00000,
,,,00.000011600000, 158.00000,
,,,00.000011800000, 162.00000,
,,,00.000012000000, 166.00000,
,,,00.000012200000, 166.00000,
,,,00.000012400000, 168.00000,
,,,00.000012600000, 172.00000,
,,,00.000012800000, 174.00000,
,,,00.000013000000, 176.00000,
,,,00.000013200000, 178.00000,
,,,00.000013400000, 180.00000,
,,,00.000013600000, 182.00000,
,,,00.000013800000, 184.00000,
,,,00.000014000000, 184.00000,
,,,00.000014200000, 186.00000,
,,,00.000014400000, 186.00000,
,,,00.000014600000, 188.00000,
,,,00.000014800000, 190.00000,
,,,00.000015000000, 192.00000,
,,,00.000015200000, 194.00000,
,,,00.000015400000, 194.00000,
,,,00.000015600000, 194.00000,
,,,00.000015800000, 196.00000,
,,,00.000016000000, 198.00000,
,,,00.000016200000, 196.00000,
,,,00.000016400000, 196.00000,
,,,00.000016600000, 198.00000,
,,,00.000017000000, 198.00000,
,,,00.000017200000, 198.00000,
,,,00.000017400000, 196.00000,
,,,00.000017600000, 196.00000,
,,,00.000017800000, 198.00000,
,,,00.000018000000, 196.00000,
,,,00.000018200000, 196.00000,
,,,00.000018400000, 200.00000,
,,,00.000018600000, 198.00000,
,,,00.000018800000, 194.00000,
,,,00.000019000000, 192.00000,
,,,00.000019200000, 196.00000,
,,,00.000019400000, 194.00000,
,,,00.000019600000, 192.00000,
,,,00.000019800000, 192.00000,
,,,00.000020000000, 190.00000,
,,,00.000020200000, 192.00000,
,,,00.000020400000, 186.00000,
,,,00.000020600000, 182.00000,
,,,00.000020800000, 182.00000,
,,,00.000021000000, 180.00000,
,,,00.000021200000, 178.00000,
,,,00.000021400000, 178.00000,
,,,00.000021600000, 174.00000,
,,,00.000021800000, 174.00000,
,,,00.000022000000, 172.00000,
,,,00.000022200000, 170.00000,
,,,00.000022400000, 166.00000,
,,,00.000022600000, 164.00000,
,,,00.000022800000, 160.00000,
,,,00.000023000000, 160.00000,
,,,00.000023200000, 156.00000,
,,,00.000023400000, 156.00000,
,,,00.000023600000, 152.00000,
,,,00.000023800000, 148.00000,
,,,00.000024000000, 146.00000,
,,,00.000024200000, 144.00000,
,,,00.000024400000, 140.00000,
,,,00.000024600000, 136.00000,
,,,00.000024800000, 138.00000,
,,,00.000025000000, 132.00000,
,,,00.000025200000, 130.00000,
,,,00.000025400000, 124.00000,
,,,00.000025600000, 122.00000,
,,,00.000025800000, 120.00000,
,,,00.000026000000, 116.00000,
,,,00.000026200000, 112.00000,
,,,00.000026400000, 112.00000,
,,,00.000026600000, 108.00000,
,,,00.000026800000, 104.00000,
,,,00.000027000000, 102.00000,
,,,00.000027200000,  98.00000,
,,,00.000027400000,  96.00000,
,,,00.000027600000,  94.00000,
,,,00.000027800000,  90.00000,
,,,00.000028000000,  84.00000,
,,,00.000028200000,  84.00000,
,,,00.000028400000,  82.00000,
,,,00.000028600000,  78.00000,
,,,00.000028800000,  76.00000,
,,,00.000029000000,  72.00000,
,,,00.000029200000,  72.00000,
,,,00.000029400000,  66.00000,
,,,00.000029600000,  64.00000,
,,,00.000029800000,  62.00000,
,,,00.000030000000,  60.00000,
,,,00.000030200000,  58.00000,
,,,00.000030400000,  56.00000,
,,,00.000030600000,  50.00000,
,,,00.000030800000,  50.00000,
,,,00.000031000000,  46.00000,
,,,00.000031200000,  44.00000,
,,,00.000031400000,  42.00000,
,,,00.000031600000,  40.00000,
,,,00.000031800000,  38.00000,
,,,00.000032000000,  34.00000,
,,,00.000032200000,  36.00000,
,,,00.000032400000,  30.00000,
,,,00.000032600000,  32.00000,
,,,00.000032800000,  30.00000,
,,,00.000033000000,  30.00000,
,,,00.000033200000,  26.00000,
,,,00.000033400000,  26.00000,
,,,00.000033600000,  24.00000,
,,,00.000033800000,  22.00000,
,,,00.000034000000,  20.00000,
,,,00.000034200000,  22.00000,
,,,00.000034400000,  20.00000,
,,,00.000034600000,  20.00000,
,,,00.000034800000,  18.00000,
,,,00.000035000000,  18.00000,
,,,00.000035200000,  16.00000,
,,,00.000035400000,  14.00000,
,,,00.000035600000,  16.00000,
,,,00.000035800000,  14.00000,
,,,00.000036000000,  14.00000,
,,,00.000036200000,  14.00000,
,,,00.000036400000,  16.00000,
00.000036600000 14.00000
,,,00.000036800000,  14.00000,
,,,00.000037000000,  14.00000,
,,,00.000037200000,  16.00000,
,,,00.000037400000,  18.00000,
,,,00.000037600000,  18.00000,
,,,00.000037800000,  18.00000,
,,,00.000038000000,  18.00000,
,,,00.000038200000,  20.00000,
,,,00.000038400000,  22.00000,
,,,00.000038600000,  22.00000,
,,,00.000038800000,  24.00000,
,,,00.000039000000,  24.00000,
,,,00.000039200000,  24.00000,
,,,00.000039400000,  28.00000,
,,,00.000039600000,  28.00000,
,,,00.000039800000,  30.00000,
,,,00.000040000000,  32.00000,
,,,00.000040200000,  34.00000,
,,,00.000040400000,  32.00000,
,,,00.000040600000,  38.00000,
,,,00.000040800000,  40.00000,
,,,00.000041000000,  40.00000,
,,,00.000041200000,  44.00000,
,,,00.000041400000,  44.00000,
,,,00.000041600000,  48.00000,
,,,00.000041800000,  50.00000,
,,,00.000042000000,  50.00000,
,,,00.000042200000,  54.00000,
,,,00.000042400000,  56.00000,
,,,00.000042600000,  60.00000,
,,,00.000042800000,  62.00000,
,,,00.000043000000,  62.00000,
,,,00.000043200000,  66.00000,
,,,00.000043400000,  70.00000,
,,,00.000043600000,  72.00000,
,,,00.000043800000,  74.00000,
,,,00.000044000000,  76.00000,
,,,00.000044200000,  80.00000,
,,,00.000044400000,  82.00000,
,,,00.000044600000,  86.00000,
,,,00.000044800000,  88.00000,
,,,00.000045000000,  92.00000,
,,,00.000045200000,  94.00000,
,,,00.000045400000,  94.00000,
,,,00.000045600000, 100.00000,
,,,00.000045800000, 102.00000,
,,,00.000046000000, 106.00000,
,,,00.000046200000, 108.00000,
,,,00.000046400000, 110.00000,
,,,00.000046600000, 112.00000,
,,,00.000046800000, 116.00000,
,,,00.000047000000, 118.00000,
,,,00.000047200000, 120.00000,
,,,00.000047400000, 126.00000,
,,,00.000047600000, 128.00000,
,,,00.000047800000, 130.00000,
,,,00.000048000000, 134.00000,
,,,00.000048200000, 136.00000,
,,,00.000048400000, 140.00000,
,,,00.000048600000, 142.00000,
,,,00.000048800000, 142.00000,
,,,00.000049000000, 144.00000,
,,,00.000049200000, 150.00000,
,,,00.000049400000, 146.00000,
,,,00.000049600000, 152.00000,
,,,00.000049800000, 154.00000,
,,,00.000050000000, 154.00000,
,,,00.000050200000, 158.00000,
,,,00.000050400000, 160.00000,
,,,00.000050600000, 162.00000,
,,,00.000050800000, 164.00000,
,,,00.000051000000, 166.00000,
,,,00.000051200000, 166.00000,
,,,00.000051400000, 170.00000,
,,,00.000051600000, 172.00000,
,,,00.000051800000, 172.00000,
,,,00.000052000000, 172.00000,
,,,00.000052200000, 176.00000,
,,,00.000052400000, 174.00000,
,,,00.000052600000, 178.00000,
,,,00.000052800000, 178.00000,
,,,00.000053000000, 180.00000,
,,,00.000053200000, 182.00000,
,,,00.000053400000, 182.00000,
,,,00.000053600000, 182.00000,
,,,00.000053800000, 180.00000,
,,,00.000054000000, 184.00000,
,,,00.000054200000, 184.00000,
,,,00.000054400000, 184.00000,
,,,00.000054600000, 184.00000,
,,,00.000054800000, 184.00000,
,,,00.000055000000, 184.00000,
,,,00.000055200000, 184.00000,
,,,00.000055400000, 184.00000,
,,,00.000055600000, 184.00000,
,,,00.000055800000, 184.00000,
,,,00.000056000000, 184.00000,
00.000056200000 186.00000
,,,00.000056400000, 182.00000,
,,,00.000056600000, 182.00000,
,,,00.000056800000, 180.00000,
,,,00.000057000000, 180.00000,
,,,00.000057200000, 178.00000,
,,,00.000057400000, 180.00000,
,,,00.000057600000, 178.00000,
,,,00.000057800000, 178.00000,
,,,00.000058000000, 176.00000,
,,,00.000058200000, 174.00000,
,,,00.000058400000, 174.00000,
,,,00.000058600000, 174.00000,
,,,00.000058800000, 170.00000,
,,,00.000059000000, 168.00000,
,,,00.000059200000, 170.00000,
,,,00.000059400000, 168.00000,
,,,00.000059600000, 164.00000,
,,,00.000059800000, 166.00000,
,,,00.000060000000, 162.00000,
,,,00.000060200000, 156.00000,
,,,00.000060400000, 156.00000,
,,,00.000060600000, 156.00000,
,,,00.000060800000, 152.00000,
,,,00.000061000000, 152.00000,
,,,00.000061200000, 150.00000,
,,,00.000061400000, 148.00000,
,,,00.000061600000, 146.00000,
,,,00.000061800000, 142.00000,
,,,00.000062000000, 136.00000,
,,,00.000062200000, 136.00000,
,,,00.000062400000, 136.00000,
,,,00.000062600000, 132.00000,
,,,00.000062800000, 130.00000,
,,,00.000063000000, 128.00000,
,,,00.000063200000, 124.00000,
,,,00.000063400000, 120.00000,
,,,00.000063600000, 118.00000,
,,,00.000063800000, 118.00000,
,,,00.000064000000, 116.00000,
,,,00.000064200000, 114.00000,
,,,00.000064400000, 108.00000,
,,,00.000064600000, 108.00000,
,,,00.000064800000, 104.00000,
,,,00.000065000000, 102.00000,
,,,00.000065200000,  98.00000,
,,,00.000065400000,  96.00000,
,,,00.000065600000,  94.00000,
,,,00.000065800000,  92.00000,
,,,00.000066000000,  90.00000,
,,,00.000066200000,  88.00000,
,,,00.000066400000,  84.00000,
,,,00.000066600000,  80.00000,
,,,00.000066800000,  76.00000,
,,,00.000067000000,  76.00000,
,,,00.000067200000,  74.00000,
,,,00.000067400000,  70.00000,
,,,00.000067600000,  70.00000,
,,,00.000067800000,  66.00000,
,,,00.000068000000,  64.00000,
,,,00.000068200000,  60.00000,
,,,00.000068400000,  60.00000,
,,,00.000068600000,  58.00000,
,,,00.000068800000,  56.00000,
,,,00.000069000000,  56.00000,
,,,00.000069200000,  52.00000,
,,,00.000069400000,  50.00000,
,,,00.000069600000,  48.00000,
,,,00.000069800000,  48.00000,
,,,00.000070000000,  46.00000,
,,,00.000070200000,  44.00000,
,,,00.000070400000,  44.00000,
,,,00.000070600000,  42.00000,
,,,00.000070800000,  40.00000,
,,,00.000071000000,  38.00000,
,,,00.000071200000,  38.00000,
,,,00.000071400000,  38.00000,
,,,00.000071600000,  34.00000,
,,,00.000071800000,  32.00000,
,,,00.000072000000,  32.00000,
,,,00.000072200000,  30.00000,
,,,00.000072400000,  32.00000,
,,,00.000072600000,  30.00000,
,,,00.000072800000,  32.00000,
,,,00.000073000000,  30.00000,
,,,00.000073200000,  30.00000,
,,,00.000073400000,  30.00000,
,,,00.000073600000,  28.00000,
,,,00.000073800000,  26.00000,
,,,00.000074000000,  30.00000,
,,,00.000074200000,  28.00000,
,,,00.000074400000,  28.00000,
00.000074600000  26.00000
,,,00.000074800000,  28.00000,
,,,00.000075000000,  30.00000,
,,,00.000075200000,  28.00000,
,,,00.000075400000,  28.00000,
,,,00.000075600000,  30.00000,
,,,00.000075800000,  30.00000,
,,,00.000076000000,  32.00000,
,,,00.000076200000,  30.00000,
,,,00.000076400000,  34.00000,
,,,00.000076600000,  34.00000,
,,,00.000076800000,  34.00000,
,,,00.000077000000,  38.00000,
,,,00.000077200000,  36.00000,
,,,00.000077400000,  38.00000,
,,,00.000077600000,  38.00000,
,,,00.000077800000,  38.00000,
,,,00.000078000000,  42.00000,
,,,00.000078200000,  44.00000,
,,,00.000078400000,  44.00000,
,,,00.000078600000,  46.00000,
,,,00.000078800000,  48.00000,
,,,00.000079000000,  50.00000,
,,,00.000079200000,  50.00000,
,,,00.000079400000,  54.00000,
,,,00.000079600000,  58.00000,
,,,00.000079800000,  58.00000,
,,,00.000080000000,  56.00000,
,,,00.000080200000,  62.00000,
,,,00.000080400000,  62.00000,
,,,00.000080600000,  64.00000,
,,,00.000080800000,  68.00000,
,,,00.000081000000,  72.00000,
,,,00.000081200000,  74.00000,
,,,00.000081400000,  74.00000,
,,,00.000081600000,  76.00000,
,,,00.000081800000,  78.00000,
,,,00.000082000000,  80.00000,
,,,00.000082200000,  86.00000,
,,,00.000082400000,  86.00000,
,,,00.000082600000,  88.00000,
,,,00.000082800000,  92.00000,
,,,00.000083000000,  94.00000,
,,,00.000083200000,  96.00000,
,,,00.000083400000,  98.00000,
,,,00.000083600000, 100.00000,
,,,00.000083800000, 102.00000,
,,,00.000084000000, 108.00000,
,,,00.000084200000, 108.00000,
,,,00.000084400000, 110.00000,
,,,00.000084600000, 114.00000,
,,,00.000084800000, 116.00000,
,,,00.000085000000, 116.00000,
,,,00.000085200000, 120.00000,
,,,00.000085400000, 122.00000,
,,,00.000085600000, 124.00000,
,,,00.000085800000, 126.00000,
,,,00.000086000000, 130.00000,
,,,00.000086200000, 130.00000,
,,,00.000086400000, 132.00000,
,,,00.000086600000, 136.00000,
,,,00.000086800000, 136.00000,
,,,00.000087000000, 140.00000,
,,,00.000087200000, 140.00000,
,,,00.000087400000, 144.00000,
,,,00.000087600000, 146.00000,
,,,00.000087800000, 146.00000,
,,,00.000088000000, 152.00000,
,,,00.000088200000, 150.00000,
,,,00.000088400000, 152.00000,
,,,00.000088600000, 152.00000,
,,,00.000088800000, 156.00000,
,,,00.000089000000, 158.00000,
,,,00.000089200000, 158.00000,
,,,00.000089400000, 160.00000,
,,,00.000089600000, 160.00000,
,,,00.000089800000, 160.00000,
,,,00.000090000000, 162.00000,
,,,00.000090200000, 164.00000,
,,,00.000090400000, 166.00000,
,,,00.000090600000, 168.00000,
,,,00.000090800000, 166.00000,
,,,00.000091000000, 168.00000,
,,,00.000091200000, 172.00000,
,,,00.000091400000, 172.00000,
,,,00.000091600000, 170.00000,
,,,00.000091800000, 172.00000,
,,,00.000092000000, 170.00000,
,,,00.000092200000, 174.00000,
,,,00.000092400000, 174.00000,
,,,00.000092600000, 174.00000,
00.000092800000 176.00000
,,,00.000093000000, 172.00000,
,,,00.000093200000, 174.00000,
,,,00.000093400000, 172.00000,
,,,00.000093600000, 174.00000,
,,,00.000093800000, 172.00000,
,,,00.000094000000, 172.00000,
,,,00.000094200000, 172.00000,
,,,00.000094400000, 172.00000,
,,,00.000094600000, 172.00000,
,,,00.000094800000, 172.00000,
,,,00.000095000000, 168.00000,
,,,00.000095200000, 170.00000,
,,,00.000095400000, 170.00000,
,,,00.000095600000, 168.00000,
,,,00.000095800000, 168.00000,
,,,00.000096000000, 166.00000,
,,,00.000096200000, 166.00000,
,,,00.000096400000, 164.00000,
,,,00.000096600000, 164.00000,
,,,00.000096800000, 160.00000,
,,,00.000097000000, 162.00000,
,,,00.000097200000, 158.00000,
,,,00.000097400000, 158.00000,
,,,00.000097600000, 158.00000,
,,,00.000097800000, 154.00000,
,,,00.000098000000, 152.00000,
